<?xml version="1.0" encoding="utf-8"?>
<!-- Generator: Adobe Illustrator 21.1.0, SVG Export Plug-In . SVG Version: 6.00 Build 0)  -->
<svg version="1.1" id="Layer_1" xmlns="http://www.w3.org/2000/svg" xmlns:xlink="http://www.w3.org/1999/xlink" x="0px" y="0px"
	 viewBox="0 0 96 97" style="enable-background:new 0 0 96 97;" xml:space="preserve">
<style type="text/css">
	.st0{fill:none;stroke:#FFFFFF;stroke-width:3;stroke-linecap:round;stroke-linejoin:round;stroke-miterlimit:10;}
</style>
<g>
	<path class="st0" d="M70.1,92.2H26.7c-6.2,0-11.3-5.1-11.3-11.5V49.7c0-18.3,14.7-33.1,32.8-33.1c18.4,0,33.3,15.1,33.3,33.7v30.5
		C81.4,87.1,76.4,92.2,70.1,92.2z"/>
	<path class="st0" d="M15,47.5c-7,0-10.4,7.1-10.4,19.5v10c0,4.3,2,7.8,4.4,7.8h5"/>
	<path class="st0" d="M81.5,47.5c7,0,10.4,7.1,10.4,19.5v10c0,4.3-2,7.8-4.4,7.8h-5"/>
	<path class="st0" d="M32.4,18.6c0-7.1,5.7-12.8,12.7-12.8h6.7c7,0,12.7,5.7,12.7,12.8"/>
	<path class="st0" d="M29.1,89.6V61.3c0-3.9,3.2-7.1,7-7.1h24.5c3.9,0,7.1,3.2,7.1,7.1v29.9"/>
	<rect x="37" y="29.3" class="st0" width="22.9" height="13.1"/>
</g>
</svg>
